{
    "status": 0,
    "data": [
        {
            "id": "4501",
            "address": "北京市海淀区玉泉路小学东路十字交叉路口向东500米"
        },
        {
            "id": "4502",
            "address": "东四北大街141号(近如家北新桥店)"
        },
        {
            "id": "4503",
            "address": "三里屯工人体育场北路13号院"
        },
        {
            "id": "4504",
            "address": "广顺北大街望京西园四区423号楼韩国城1楼"
        },
        {
            "id": "4505",
            "address": "工人体育场西路8号"
        }
    ]
}