{
    "status": 0,
    "data": [
        {
            "id": 121,
            "type": "HDMI",
            "name": "海淀区人民政府海淀街道办事处",
            "children": [
                {
                    "id": 1211,
                    "name": "指挥学院幼儿园"
                },
                {
                    "id": 1212,
                    "name": "采石南路南口"
                },
                {
                    "id": 1213,
                    "name": "五棵松桥东南角"
                },
                {
                    "id": 1214,
                    "name": "万寿路东街东门"
                }
            ]
        },
        {
            "id": 122,
            "type": "SDI",
            "name": "海淀区人民政府海淀街道办事处"
        },
        {
            "id": 123,
            "name": "海淀区人民政府海淀街道办事处"
        },
        {
            "id": 124,
            "name": "海淀区人民政府海淀街道办事处"
        },
        {
            "id": 125,
            "name": "海淀区人民政府海淀街道办事处"
        }
    ]
}
