{
    "status": 0,
    "data": {
        "accident": [
            {
                "name": "事故发生地xxx街道"
            }
        ],
        "list": [
            {
                "name": "海淀区人民政府海淀街道办事处",
                "children": [
                    {
                        "name": "中关村一街道办事处"
                    },
                    {
                        "name": "中关村二街道办事处"
                    },
                    {
                        "name": "中关村三街道办事处"
                    }
                ]
            },
            {
                "name": "朝阳区办事处"
            },
            {
                "name": "丰台区办事处"
            },
            {
                "name": "房山区办事处"
            },
            {
                "name": "昌平区办事处"
            }
        ]
    }
}