<?xml version="1.0" encoding="UTF-8"?>
<svg width="24px" height="19px" viewBox="0 0 24 19" version="1.1" xmlns="http://www.w3.org/2000/svg" xmlns:xlink="http://www.w3.org/1999/xlink">
    <!-- Generator: Sketch 44.1 (41455) - http://www.bohemiancoding.com/sketch -->
    <title>Selfies Icon</title>
    <desc>Created with Sketch.</desc>
    <defs></defs>
    <g id="Page-1" stroke="none" stroke-width="1" fill="none" fill-rule="evenodd">
        <g id="城市眼首页" transform="translate(-3625.000000, -579.000000)" fill="#000000">
            <g id="1-+-1-copy-+-1-copy-2-+-1-copy-3-Mask" transform="translate(3109.000000, 190.000000)">
                <g id="1" transform="translate(30.000000, 30.000000)">
                    <g id="相机" transform="translate(474.000000, 345.000000)">
                        <path d="M16.2857143,15.8571429 L16.2857143,16.7142857 L12,16.7142857 L12,15.8571429 C12,15.3831429 12.384,15 12.8571429,15 L15.4285714,15 C15.9017143,15 16.2857143,15.3831429 16.2857143,15.8571429 Z M31.7142857,18.2857143 L33.4285714,18.2857143 C34.8488571,18.2857143 36,19.4368571 36,20.8571429 L36,30.2857143 C36,31.7051429 34.8488571,32.8571429 33.4285714,32.8571429 L14.5714286,32.8571429 C13.1511429,32.8571429 12,31.7051429 12,30.2857143 L12,20.8571429 C12,19.4368571 13.1511429,18.2857143 14.5714286,18.2857143 L16.2857143,18.2857143 L18.942,14.9651429 C19.4305714,14.3548571 20.1685714,14 20.9502857,14 L27.0497143,14 C27.8314286,14 28.5702857,14.3548571 29.058,14.9651429 L31.7142857,18.2857143 Z M22,26.7142857 C23.8935477,26.7142857 25.4285714,25.179262 25.4285714,23.2857143 C25.4285714,21.3921666 23.8935477,19.8571429 22,19.8571429 C20.1064523,19.8571429 18.5714286,21.3921666 18.5714286,23.2857143 C18.5714286,25.179262 20.1064523,26.7142857 22,26.7142857 Z" id="Selfies-Icon"></path>
                    </g>
                </g>
            </g>
        </g>
    </g>
</svg>