<?xml version="1.0" encoding="UTF-8"?>
<svg width="63px" height="52px" viewBox="0 0 63 52" version="1.1" xmlns="http://www.w3.org/2000/svg" xmlns:xlink="http://www.w3.org/1999/xlink">
    <!-- Generator: Sketch 44.1 (41455) - http://www.bohemiancoding.com/sketch -->
    <title>半球摄像机</title>
    <desc>Created with Sketch.</desc>
    <defs></defs>
    <g id="Page-1" stroke="none" stroke-width="1" fill="none" fill-rule="evenodd">
        <g id="视频全屏播放-copy" transform="translate(-425.000000, -417.000000)" fill-rule="nonzero" fill="#000000">
            <g id="半球摄像机" transform="translate(425.000000, 417.000000)">
                <path d="M58.053491,28.1859557 C57.6892128,41.3827685 45.984186,51.9834813 31.5667916,51.9834813 C17.1975777,51.9834813 5.52657454,41.4525538 5.0874244,28.3179705 C2.79174546,27.12941 1.05408129,25.7203023 0.134566095,24.0704174 C-0.0829574546,20.5052066 0.134566095,10.4464813 0.134566095,8.12048413 C10.0389291,-2.59623346 52.7675582,-2.7624067 62.999116,8.12048413 C62.999116,11.6094942 62.999116,22.2428971 62.999116,24.0704174 C62.0586338,25.6534395 60.327498,27.0211323 58.053491,28.1859557 Z M21.7444494,43.0111975 L22.3457517,43.0111975 C23.6990872,45.329154 27.2962694,46.9989267 31.5667916,46.9989267 C35.8375818,46.9989267 39.4348204,45.3291397 40.7881559,43.0111975 L41.3893877,43.0111975 L41.3893877,30.0518259 L41.1921966,30.0518259 C40.2818888,25.5016083 36.3188351,22.076681 31.5668058,22.076681 C26.8150161,22.076681 22.8516098,25.5016083 21.9414149,30.0518259 L21.7444777,30.0518259 L21.7444776,43.0111975 L21.7444494,43.0111975 Z M58.087966,10.291257 C49.0583642,3.69877419 16.910216,3.19162939 5.04588531,10.1141919 C5.04588531,11.3101229 4.94002112,16.6590296 5.12343634,18.492224 C14.4620013,12.5571062 48.460728,12.635588 58.0879661,18.492224 C58.087966,17.5525956 58.087966,12.0852177 58.087966,10.291257 Z M31.5667916,32.0455194 C34.2793143,32.0455194 36.4782236,34.5002667 36.4782236,37.5285367 C36.4782236,40.5563932 34.2793142,43.0111975 31.5667916,43.0111975 C28.8545228,43.0111975 26.6555993,40.5563932 26.6555993,37.5285367 C26.6555994,34.5002667 28.8545228,32.0455194 31.5667916,32.0455194 Z" id="Shape"></path>
            </g>
        </g>
    </g>
</svg>