<?xml version="1.0" encoding="UTF-8"?>
<svg width="32px" height="26px" viewBox="0 0 32 26" version="1.1" xmlns="http://www.w3.org/2000/svg" xmlns:xlink="http://www.w3.org/1999/xlink">
    <!-- Generator: Sketch 44.1 (41455) - http://www.bohemiancoding.com/sketch -->
    <title>Path 4</title>
    <desc>Created with Sketch.</desc>
    <defs></defs>
    <g id="Page-1" stroke="none" stroke-width="1" fill="none" fill-rule="evenodd" stroke-linecap="round" stroke-linejoin="round">
        <g id="拍照" transform="translate(-2851.000000, -720.000000)" stroke-width="4" stroke="#FFFFFF">
            <g id="Group-4" transform="translate(1023.000000, 414.000000)">
                <g id="Group-3" transform="translate(732.000000, 273.000000)">
                    <polyline id="Path-4" points="1098 49.03125 1108.14844 56.3710938 1125.39062 35"></polyline>
                </g>
            </g>
        </g>
    </g>
</svg>