<?xml version="1.0" encoding="UTF-8"?>
<svg width="34px" height="40px" viewBox="0 0 34 40" version="1.1" xmlns="http://www.w3.org/2000/svg" xmlns:xlink="http://www.w3.org/1999/xlink">
    <!-- Generator: Sketch 44.1 (41455) - http://www.bohemiancoding.com/sketch -->
    <title>Shape</title>
    <desc>Created with Sketch.</desc>
    <defs></defs>
    <g id="Page-1" stroke="none" stroke-width="1" fill="none" fill-rule="evenodd">
        <g id="点击手写" transform="translate(-821.000000, -247.000000)" fill-rule="nonzero" fill="#000000">
            <path d="M852.453771,264.188755 C852.453771,262.582329 851.16863,261.297189 849.562204,261.297189 L843.779072,261.297189 L843.779072,249.891566 C843.779072,248.285141 842.493931,247 840.887506,247 C839.28108,247 837.995939,248.285141 837.995939,249.891566 L837.995939,261.297189 L832.534092,261.297189 C830.927666,261.297189 829.642526,262.582329 829.642526,264.188755 L829.642526,267.080321 L852.614413,267.080321 L852.614413,264.188755 L852.453771,264.188755 Z M852.453771,269.971888 L829.481883,269.971888 C829.481883,269.971888 827.875457,287 820.967827,287 L829.160598,287 C832.373449,287 833.819232,277.682731 833.819232,277.682731 C833.819232,277.682731 835.265016,286.036145 833.979875,287 L838.477867,287 C838.317224,287 838.477867,287 838.959795,287 C841.208791,286.678715 841.530076,276.39759 841.530076,276.39759 C841.530076,276.39759 843.779072,286.839357 843.457787,286.839357 L838.959795,286.839357 L838.959795,286.839357 L845.54614,286.839357 C845.224855,286.839357 845.54614,286.839357 846.028068,286.839357 C848.116421,286.35743 848.277064,278.807229 848.277064,278.807229 C848.277064,278.807229 849.240919,286.839357 848.919634,286.839357 L846.028068,286.839357 L845.867425,286.839357 L849.722847,286.839357 C855.505979,287 855.827265,278.967871 852.453771,269.971888 Z" id="Shape"></path>
        </g>
    </g>
</svg>