<?xml version="1.0" encoding="UTF-8"?>
<svg width="48px" height="48px" viewBox="0 0 48 48" version="1.1" xmlns="http://www.w3.org/2000/svg" xmlns:xlink="http://www.w3.org/1999/xlink">
    <!-- Generator: Sketch 44.1 (41455) - http://www.bohemiancoding.com/sketch -->
    <title>Combined-Shape-Copy-2</title>
    <desc>Created with Sketch.</desc>
    <defs></defs>
    <g id="Page-1" stroke="none" stroke-width="1" fill="none" fill-rule="evenodd" opacity="0.75">
        <g id="fullscreen" fill-rule="nonzero" fill="#FFFFFF">
            <g id="Page-1">
                <g id="城市眼首页">
                    <g id="1-+-1-copy-+-1-copy-2-+-1-copy-3-Mask">
                        <g id="1">
                            <path d="M24.0003598,46.6106978 C36.4684371,46.6106978 46.6113619,36.4664999 46.6113619,24.0003044 C46.6113619,11.5318397 36.468437,1.3876419 24.0003598,1.3876419 C11.5318397,1.3876419 1.3890255,11.5318397 1.3890255,24.0003044 C1.3890255,36.4664999 11.5318397,46.6106978 24.0003598,46.6106978 L24.0003598,46.6106978 Z M24.0003598,47.9986164 C10.7460886,47.9986164 0,37.2539115 0,24.0003044 C0,10.745037 10.7460332,0 24.0003598,0 C37.2552951,0 48,10.745037 48,24.0003044 C48,37.2539115 37.2552951,47.9986164 24.0003598,47.9986164 Z M32.8645252,9.829552 L32.8645252,11.6440104 L36.3800277,11.6440104 L36.3800277,15.1595129 L38.1944861,15.1595129 L38.1944861,9.829552 L32.8645252,9.829552 Z M9.829552,9.829552 L9.829552,15.1595129 L11.6440104,15.1595129 L11.6440104,11.6440104 L15.1595129,11.6440104 L15.1595129,9.829552 L9.829552,9.829552 Z M15.145315,31.0926604 L32.8361295,31.0926604 L32.8361295,16.9172361 L15.145315,16.9172361 L15.145315,31.0926604 Z M36.3800277,32.8645252 L36.3800277,36.4934419 L32.8645252,36.4934419 L32.8645252,38.1944861 L38.1944861,38.1944861 L38.1944861,32.8645252 L36.3800277,32.8645252 Z M9.829552,32.8645252 L9.829552,38.1944861 L15.1595129,38.1944861 L15.1595129,36.3800277 L11.6440104,36.3800277 L11.6440104,32.8645252 L9.829552,32.8645252 Z" id="Combined-Shape-Copy-2"></path>
                        </g>
                    </g>
                </g>
            </g>
        </g>
    </g>
</svg>