<?xml version="1.0" encoding="UTF-8"?>
<svg width="90px" height="90px" viewBox="0 0 90 90" version="1.1" xmlns="http://www.w3.org/2000/svg" xmlns:xlink="http://www.w3.org/1999/xlink">
    <!-- Generator: Sketch 44.1 (41455) - http://www.bohemiancoding.com/sketch -->
    <title>Group 3</title>
    <desc>Created with Sketch.</desc>
    <defs></defs>
    <g id="Page-1" stroke="none" stroke-width="1" fill="none" fill-rule="evenodd" opacity="0.4">
        <g id="视频全屏播放-copy-8" transform="translate(-3619.000000, -228.000000)">
            <g id="Group-3" transform="translate(3619.000000, 228.000000)">
                <circle id="Oval-Copy-2" stroke="#FFFFFF" stroke-width="5" cx="45" cy="45" r="42.5"></circle>
                <path d="M68.9904013,32.2101841 C68.9902501,33.0935266 68.2741172,33.809537 67.3907746,33.809537 C66.5074321,33.809537 65.7912991,33.0935266 65.7911479,32.2101841 L65.7911479,24.2120504 L57.7930142,24.2120504 C56.9096718,24.2118992 56.1936613,23.4957662 56.1936613,22.6124237 C56.1936613,21.7290813 56.9096718,21.0129483 57.7930142,21.012797 L67.4995493,21 C67.8977706,20.9999997 68.2796585,21.158302 68.5610935,21.440037 C68.8425285,21.721772 69.0004237,22.1038283 68.9999991,22.5020495 L68.9904013,32.2101841 Z M32.1989867,24.2120504 L24.2008531,24.2120504 L24.2008531,32.2101841 C24.2007018,33.0935266 23.4845689,33.809537 22.6012263,33.809537 C21.7178838,33.809537 21.0017508,33.0935266 21.0015996,32.2101841 L21.0015996,22.5020495 C21.0011751,22.1038283 21.1590703,21.721772 21.4405052,21.440037 C21.7219402,21.158302 22.1038281,20.9999997 22.5020495,21 L32.1989867,21.012797 C33.0823292,21.0129483 33.7983396,21.7290813 33.7983396,22.6124237 C33.7983396,23.4957662 33.0823292,24.2118992 32.1989867,24.2120504 Z M22.6012264,56.204585 C23.4680645,56.2434563 24.1619818,56.9373736 24.2008531,57.8042117 L24.2008531,65.8023453 L32.1989867,65.8023453 C33.0823292,65.8024966 33.7983396,66.5186295 33.7983396,67.4019721 C33.7983396,68.2853145 33.0823292,69.0014475 32.1989867,69.0015988 L22.5004499,69.0015988 C21.6717743,69.0015988 21,68.3298245 21,67.5011489 L21,57.8042117 C21.0389345,56.9367877 21.7337638,56.2426525 22.6012264,56.204585 L22.6012264,56.204585 Z M28.9997333,62.6030919 C28.1325673,62.5649648 27.4382335,61.8706311 27.4001065,61.0034651 L27.4001065,29.0109306 C27.4382335,28.1437647 28.1325673,27.449431 28.9997333,27.4113039 L60.9922677,27.4113039 C61.8594337,27.449431 62.5537674,28.1437647 62.5918944,29.0109306 L62.5918944,61.0034651 C62.5537674,61.8706311 61.8594337,62.5649648 60.9922677,62.6030919 L28.9997333,62.6030919 Z M57.7930142,65.8023453 L65.7911479,65.8023453 L65.7911479,57.8042117 C65.7912991,56.9208692 66.5074321,56.2048588 67.3907746,56.2048588 C68.2741172,56.2048588 68.9902501,56.9208692 68.9904013,57.8042117 L68.9904013,67.401972 C68.9522743,68.2691379 68.2579406,68.9634717 67.3907746,69.0015988 L57.7930142,69.0015988 C56.9096718,69.0014475 56.1936613,68.2853145 56.1936613,67.4019721 C56.1936613,66.5186295 56.9096718,65.8024966 57.7930142,65.8023453 L57.7930142,65.8023453 Z" id="Shape" fill="#FFFFFF" fill-rule="nonzero"></path>
            </g>
        </g>
    </g>
</svg>