<?xml version="1.0" encoding="UTF-8"?>
<svg width="130px" height="211px" viewBox="0 0 130 211" version="1.1" xmlns="http://www.w3.org/2000/svg" xmlns:xlink="http://www.w3.org/1999/xlink">
    <!-- Generator: Sketch 44.1 (41455) - http://www.bohemiancoding.com/sketch -->
    <title>Fill 14 Copy 4</title>
    <desc>Created with Sketch.</desc>
    <defs></defs>
    <g id="Page-1" stroke="none" stroke-width="1" fill="none" fill-rule="evenodd">
        <g id="城市眼首页" transform="translate(-2834.000000, -1613.000000)" fill="#FF5E05">
            <g id="Group-4" transform="translate(2074.000000, 1342.000000)">
                <path d="M821.075274,271 L828.644517,271 C847.510701,272.112194 865.956884,281.603867 877.392287,297.21736 C884.88153,307.081349 889.059998,319.323404 890,331.757163 L890,336.372293 C889.559999,360.474583 874.583052,380.259596 861.615339,399.006878 C847.056854,420.190847 833.602986,443.277587 829.875288,469.387213 C828.876825,473.81064 830.07375,480.003754 824.941434,482 C823.73374,481.031979 822.329122,480.231897 821.481428,478.88047 C819.961426,464.282527 816.419882,449.865197 810.37218,436.534712 C803.51063,421.003604 793.956769,406.968096 784.250599,393.232024 C778.341359,384.995134 772.769042,376.469898 768.159804,367.383811 C760.916716,353.766564 758.222865,337.674606 761.18287,322.395405 C763.609028,310.332377 769.739807,299.154986 778.225974,290.510925 C789.661377,278.997657 805.124479,272.028225 821.075274,271 M815.537457,298.204078 C799.764464,301.867207 786.52903,316.389904 785.197895,333.384791 C783.541433,349.208492 792.439158,365.26643 806.064986,372.251209 C820.834884,380.384597 840.229865,377.892654 852.565224,366.138469 C864.084552,355.532892 868.278574,337.217247 862.262714,322.395404 C855.14345,303.848344 834.010675,293.2851 815.537457,298.204078 M841.714524,361.250506 L841.714524,361.250506 L841.714524,365.247565 C841.714524,366.350675 840.968334,367.246094 840.045558,367.246094 L835.036707,367.246094 C834.11393,367.246094 833.365731,366.350675 833.365731,365.247565 L833.365731,361.250506 L816.667054,361.250506 L816.667054,365.247565 C816.667054,366.350675 815.919774,367.246094 814.997054,367.246094 L809.98717,367.246094 C809.065427,367.246094 808.317228,366.350675 808.317228,365.247565 L808.317228,361.250506 L808.317228,361.250506 C806.472765,361.250506 804.977286,359.460631 804.977286,357.253242 L804.977286,315.285986 C804.977286,313.078597 808.142707,311.288859 809.98717,311.288859 C809.98717,311.288859 816.71321,307.292969 825.015905,307.292969 C833.410796,307.292969 841.714524,311.288859 841.714524,311.288859 C843.559963,311.288859 845.054466,313.078597 845.054466,315.285986 L845.054466,357.253242 C845.055442,359.459532 843.559963,361.250506 841.714524,361.250506 Z M812.355851,355.630617 C814.661759,355.630617 816.530276,353.394373 816.530276,350.63481 C816.530276,347.875247 814.661702,345.639002 812.355851,345.639002 C810.049999,345.639002 808.181425,347.875247 808.181425,350.63481 C808.181425,353.394373 810.049999,355.630617 812.355851,355.630617 Z M832.022405,311.127572 L818.662752,311.127572 C817.740951,311.127572 816.99281,312.022991 816.99281,313.126101 C816.99281,314.23038 817.741008,315.12463 818.662752,315.12463 L832.022405,315.12463 C832.945182,315.12463 833.691372,314.23038 833.691372,313.126101 C833.691372,312.024227 832.945182,311.127572 832.022405,311.127572 Z M841.577746,323.671329 C841.577746,322.566982 840.831556,321.672731 839.908779,321.672731 L835.734354,321.672731 L828.219987,321.672731 L809.851368,321.672731 C808.929624,321.672731 808.181425,322.566982 808.181425,323.671329 L808.181425,335.661473 C808.181425,336.764584 808.928648,337.660002 809.851368,337.660002 L828.219987,337.660002 L835.734354,337.660002 L839.908779,337.660002 C840.831556,337.660002 841.577746,336.764515 841.577746,335.661473 L841.577746,323.671329 Z M837.187933,345.639002 C834.882082,345.639002 833.013508,347.875247 833.013508,350.63481 C833.013508,353.394373 834.882082,355.630617 837.187933,355.630617 C839.493784,355.630617 841.362358,353.394373 841.362358,350.63481 C841.362358,347.875247 839.493784,345.639002 837.187933,345.639002 Z" id="Fill-14-Copy-4"></path>
            </g>
        </g>
    </g>
</svg>