<?xml version="1.0" encoding="UTF-8"?>
<svg width="97px" height="130px" viewBox="0 0 97 130" version="1.1" xmlns="http://www.w3.org/2000/svg" xmlns:xlink="http://www.w3.org/1999/xlink">
    <!-- Generator: Sketch 44.1 (41455) - http://www.bohemiancoding.com/sketch -->
    <title>Combined Shape</title>
    <desc>Created with Sketch.</desc>
    <defs></defs>
    <g id="Page-1" stroke="none" stroke-width="1" fill="none" fill-rule="evenodd">
        <g id="城市眼首页" transform="translate(-2834.000000, -1913.000000)" fill-rule="nonzero" fill="#287FFF">
            <g id="Group-4" transform="translate(2074.000000, 1342.000000)">
                <g id="Group-2" transform="translate(760.000000, 571.000000)">
                    <path d="M51.6747631,127.842793 C50.4967524,130.728718 46.4257009,130.714043 45.24734,127.828817 C32.1687936,95.8072815 5.81530823,87.026174 0.773141597,58.4995417 C-4.19130756,30.4162795 15.2912065,2.90705791 43.7378056,0.223427358 C72.6682121,-2.50597273 97,20.1310672 97,48.439683 C97,85.3962904 66.1728734,92.3274014 51.6747631,127.842793 Z M48.6200008,74.2400017 C62.7695366,74.2400017 74.2400017,62.7695366 74.2400017,48.6200008 C74.2400017,34.4704651 62.7695366,23 48.6200008,23 C34.4704651,23 23,34.4704651 23,48.6200008 C23,62.7695366 34.4704651,74.2400017 48.6200008,74.2400017 Z" id="Combined-Shape"></path>
                </g>
            </g>
        </g>
    </g>
</svg>