<?xml version="1.0" encoding="UTF-8"?>
<svg width="48px" height="27px" viewBox="0 0 48 27" version="1.1" xmlns="http://www.w3.org/2000/svg" xmlns:xlink="http://www.w3.org/1999/xlink">
    <!-- Generator: Sketch 44.1 (41455) - http://www.bohemiancoding.com/sketch -->
    <title>Shape</title>
    <desc>Created with Sketch.</desc>
    <defs></defs>
    <g id="Page-1" stroke="none" stroke-width="1" fill="none" fill-rule="evenodd">
        <path d="M21.0141458,1.3838096 C21.7435389,0.5070659 22.8249801,1.00000001e-06 23.9654597,1.00000001e-06 C25.1059392,1.00000001e-06 26.1873805,0.5070659 26.9167735,1.3838096 L47.0720876,23.6506327 C48.7516971,25.4742087 48.0798533,26.913874 45.6324223,26.913874 L2.3464859,26.913874 C-0.1009451,26.913874 -0.7248,25.4262199 0.9068206,23.6506327 L21.0141458,1.3838096 Z" id="Shape" fill="#000000" fill-rule="nonzero" transform="translate(24.000000, 13.456938) scale(-1, 1) rotate(-180.000000) translate(-24.000000, -13.456938) "></path>
    </g>
</svg>