<?xml version="1.0" encoding="UTF-8"?>
<svg width="40px" height="40px" viewBox="0 0 40 40" version="1.1" xmlns="http://www.w3.org/2000/svg" xmlns:xlink="http://www.w3.org/1999/xlink">
    <!-- Generator: Sketch 44.1 (41455) - http://www.bohemiancoding.com/sketch -->
    <title>Shape</title>
    <desc>Created with Sketch.</desc>
    <defs></defs>
    <g id="Page-1" stroke="none" stroke-width="1" fill="none" fill-rule="evenodd">
        <path d="M36.8011632,40 L3.1988368,40 C1.4394766,40 0,38.5605234 0,36.8011632 L0,3.1988368 C0,1.4394766 1.4394766,0 3.1988368,0 L36.8011632,0 C38.5605234,0 40,1.4394766 40,3.1988368 L40,36.8011632 C40,38.5605234 38.5605234,40 36.8011632,40 Z" id="Shape" fill="#000000" fill-rule="nonzero"></path>
    </g>
</svg>