<?xml version="1.0" encoding="UTF-8"?>
<svg width="68px" height="58px" viewBox="0 0 68 58" version="1.1" xmlns="http://www.w3.org/2000/svg" xmlns:xlink="http://www.w3.org/1999/xlink">
    <!-- Generator: Sketch 44.1 (41455) - http://www.bohemiancoding.com/sketch -->
    <title>Combined Shape</title>
    <desc>Created with Sketch.</desc>
    <defs>
        <path d="M414,210 C411.235,210 409,207.76 409,205 C409,202.24 411.235,200 414,200 L464,200 C466.765,200 469,202.24 469,205 C469,207.76 466.765,210 464,210 L414,210 Z M464,220 C466.765,220 469,222.24 469,225 C469,227.765 466.765,230 464,230 L414,230 C411.235,230 409,227.765 409,225 C409,222.24 411.235,220 414,220 L464,220 Z M464,240 C466.765,240 469,242.235 469,245 C469,247.765 466.765,250 464,250 L414,250 C411.235,250 409,247.765 409,245 C409,242.235 411.235,240 414,240 L464,240 Z" id="path-1"></path>
        <filter x="-13.3%" y="-8.0%" width="126.7%" height="132.0%" filterUnits="objectBoundingBox" id="filter-2">
            <feOffset dx="0" dy="4" in="SourceAlpha" result="shadowOffsetOuter1"></feOffset>
            <feGaussianBlur stdDeviation="2" in="shadowOffsetOuter1" result="shadowBlurOuter1"></feGaussianBlur>
            <feColorMatrix values="0 0 0 0 0   0 0 0 0 0   0 0 0 0 0  0 0 0 0.35 0" type="matrix" in="shadowBlurOuter1"></feColorMatrix>
        </filter>
    </defs>
    <g id="Page-1" stroke="none" stroke-width="1" fill="none" fill-rule="evenodd">
        <g id="城市眼首页" transform="translate(-405.000000, -200.000000)" fill-rule="nonzero">
            <g id="Combined-Shape">
                <use fill="black" fill-opacity="1" filter="url(#filter-2)" xlink:href="#path-1"></use>
                <use fill="#FFFFFF" fill-rule="evenodd" xlink:href="#path-1"></use>
            </g>
        </g>
    </g>
</svg>